…
### Extract recent climate covariates for observations

Next we extract recent covariates for the observations. These are
briefly described [here](https://www.worldclim.org/data/bioclim.html).

``` r
env_obs <- stars::st_extract(recent, sf::st_coordinates(obs)) |>
  dplyr::as_tibble()
env_obs
```

    ## # A tibble: 116 × 19
    ##    bio01 bio02 bio03 bio04 bio05 bio06 bio07 bio08 bio09 bio10 bio11 bio12 bio13
    ##    <dbl> <dbl> <dbl> <dbl> <dbl> <dbl> <dbl> <dbl> <dbl> <dbl> <dbl> <dbl> <dbl>
    ##  1  26.7 10.9   74.9  63.6  33.7  19.2 14.5   26.8  26.0  27.5  25.9  1747   283
    ##  2  26.7 10.9   74.9  63.6  33.7  19.2 14.5   26.8  26.0  27.5  25.9  1747   283
    ##  3  25.5 11.0   64.8 191.   32.7  15.7 17.0   27.1  23.8  27.1  22.8  3613   567
    ##  4  24.3 10.6   63.1 230.   31.8  15.0 16.8   26.5  22.3  26.5  21.1  1637   274
    ##  5  24.3 10.8   64.2 224.   31.7  14.9 16.8   26.4  22.3  26.4  21.1  1758   290
    ##  6  25.6 10.4   64.0 179.   32.6  16.3 16.3   27.0  23.1  27.1  23.1  2631   408
    ##  7  24.1 10.0   61.5 232.   31.5  15.2 16.3   26.3  22.3  26.3  20.9  1257   196
    ##  8  27.3  8.18  76.6  68.7  33.2  22.6 10.7   26.6  28.1  28.3  26.6  2370   356
    ##  9  27.1  8.33  80.1  52.8  32.5  22.1 10.4   26.6  27.3  27.8  26.5  2279   306
    ## 10  26.9  7.89  81.7  50.3  32.1  22.5  9.65  26.4  27.1  27.6  26.4  2270   304
    ## # … with 106 more rows, and 6 more variables: bio14 <dbl>, bio15 <dbl>,
    ## #   bio16 <dbl>, bio17 <dbl>, bio18 <dbl>, bio19 <dbl>
…
Now we create a set of sample locations within the enclosing polygon,
`poly`. Immediately we’ll extract the recent climatic variables for
these background points.

``` r
N <- 1200
back <- sf::st_sample(poly, N)

env_back <- stars::st_extract(recent, sf::st_coordinates(back)) |>
  dplyr::as_tibble() |>
  na.omit()
env_back
```

    ## # A tibble: 1,041 × 19
    ##    bio01 bio02 bio03 bio04 bio05 bio06 bio07 bio08 bio09 bio10 bio11 bio12 bio13
    ##    <dbl> <dbl> <dbl> <dbl> <dbl> <dbl> <dbl> <dbl> <dbl> <dbl> <dbl> <dbl> <dbl>
    ##  1  20.7 11.0   67.8 141.   29.0  12.7  16.2  21.3  19.7  22.2  18.8  1185   229
    ##  2  25.2 12.1   70.5  78.5  33.9  16.8  17.2  24.6  25.0  26.4  24.6  1205   197
    ##  3  21.8 12.3   69.3 175.   28.9  11.1  17.7  22.9  19.3  23.0  19.2  1458   298
    ##  4  26.6 10.2   90.4  36.4  32.4  21.2  11.3  26.4  26.8  27.0  26.1  3063   372
    ##  5  18.6  9.02  88.3  25.9  23.7  13.5  10.2  18.3  18.6  18.9  18.3  1791   237
    ##  6  24.5 10.1   65.6 174.   31.5  16.1  15.4  25.8  22.0  26.3  22.0   818   131
    ##  7  25.1 10.1   79.3  43.9  31.6  18.9  12.7  24.7  25.3  25.7  24.7  1692   285
    ##  8  26.1 10.0   69.7  36.4  33.4  19.0  14.4  25.7  26.1  26.6  25.7  2254   337
    ##  9  26.2  9.95  79.5  33.8  32.4  19.9  12.5  26.1  25.8  26.6  25.7  2891   375
    ## 10  25.8  8.83  82.6  55.2  31.6  20.9  10.7  25.5  26.6  26.6  25.3  1778   297
    ## # … with 1,031 more rows, and 6 more variables: bio14 <dbl>, bio15 <dbl>,
    ## #   bio16 <dbl>, bio17 <dbl>, bio18 <dbl>, bio19 <dbl>
…
